Sheets
------

Schools                                 shtSchools
Students                                shtStudents
Student Summary                         shtStudentSummary
SchoolStaff                             shtStaff
Staff Summary                           shtStaffSummary
WASH                                    shtWash
Wash Summary                            shtWashSummary
Merge                                   shtMerge
Rollover                                shtRollover
SchoolsList                             Sheet4
SchoolsYap                              Sheet6
SchoolsKosrae                           Sheet1
SchoolsPohnpei                          Sheet7
SchoolsChuuk                            Sheet8
Settings                                shtSettings
Lists                                   shtLists


ListObject: SchoolTable:Schools
-------------------------------

SchoolYear
State
School Name
School No
School Type
School Budget
Date School Begins
# Buildings
# Classrooms
# Classrooms in poor condition
Electricity
Electricity Source
Telephone
Fax
Copier
Internet
Computer Lab
# Computers
Use of Technology

ListObject: StudentTable:Students
---------------------------------

SchoolYear
State
School Name
School No
School Type
National Student ID
First Name
Middle Name
Last Name
Full Name
Gender
Date of Birth
DoB Estimate
Age
Citizenship
Ethnicity
Grade Level
From
Transferred From which school
Transfer In Date
SpEd Student
Full Name 2
Days Absent
Completed?
Outcome
Dropout Reason
Expulsion Reason
Post-secondary study

ListObject: StaffTable:SchoolStaff
----------------------------------

SchoolYear
State
School Name
School No
School Type
Office
First Name
Middle Name
Last Name
Full Name
Gender
Date of Birth
Age
Citizenship
Ethnicity
FSM_SSN
OTHER_SSN
Highest Qualification
Field of Study
Year of Completion
Highest Ed Qualification
Year Of Completion2
Employment Status
Reason
Job Title
Organization
Staff Type
Teacher-Type
Date of Hire 
Date Of Exit
Annual Salary
Funding Source
ECE
Grade 1
Grade 2
Grade 3
Grade 4
Grade 5
Grade 6
Grade 7
Grade 8
Grade 9
Grade 10
Grade 11
Grade 12
Admin
Other
Total Days Absence
Maths
Science
Language
Competency

ListObject: WashTable:WASH
--------------------------

SchoolYear
State
School Name
School No
School Type
Main Source Drinking Water
Currently Available
Toilet Type
Girls' Toilets Total
Girls' Toilets Usable
Boys' Toilets Total
Boys' Toilets Usable
Common Toilets Total
Common Toilets Usable
Available
Soap and Water

ListObject: SchoolsList:SchoolsList
-----------------------------------

schNo
schName
schLandOwner
SchoolType
Authority
AuthorityGroup
State

ListObject: SchoolsYAP:SchoolsYap
---------------------------------

schNo
schName
schLandOwner
SchoolType
Authority
AuthorityGroup
State

ListObject: SchoolsKOSRAE:SchoolsKosrae
---------------------------------------

schNo
schName
schLandOwner
SchoolType
Authority
AuthorityGroup
State

ListObject: SchoolsPOHNPEI:SchoolsPohnpei
-----------------------------------------

schNo
schName
schLandOwner
SchoolType
Authority
AuthorityGroup
State

ListObject: SchoolsCHUUK:SchoolsChuuk
-------------------------------------

schNo
schName
schLandOwner
SchoolType
Authority
AuthorityGroup
State

Workbook Defined Names
----------------------

SchoolStaff!_FilterDatabase             =SchoolStaff!$A$3:$BA$1966
Students!_FilterDatabase                =Students!$A$3:$AD$3
_xlfn.IFERROR                           =#NAME?
AllOrOneSchool                          =Lists!$AK$1
booklist                                =Merge!$O$9:$O$18
censusDate                              =Settings!$B$6
Chuuk                                   =SchoolsCHUUK[schName]
Chuuk_JTL                               =Lists!$K$3:$K$122
colsEnrolment                           =Students!$Q$2:$U$2
colsOutcome                             =Students!$V$2:$AB$2
colsStudent                             =Students!$F$2:$P$2
Dropout_reasons                         =Lists!$H$3:$H$17
Expelled_reasons                        =Lists!$I$3:$I$8
SchoolsChuuk!ExternalData_1             =SchoolsChuuk!$B$2:$H$85
SchoolsKosrae!ExternalData_1            =SchoolsKosrae!$B$2:$H$12
SchoolsList!ExternalData_1              =SchoolsList!$A$1:$G$200
SchoolsPohnpei!ExternalData_1           =SchoolsPohnpei!$B$2:$H$45
SchoolsYap!ExternalData_1               =SchoolsYap!$B$2:$H$67
FSMSchools                              =SchoolsList[schName]
Kosrae                                  =SchoolsKOSRAE[schName]
Kosrae_JTL                              =Lists!$J$3:$J$12
lists                                   =Merge!$U$7:$U$11
lstAllOrOneSchool                       =Lists!$AK$3:$AK$4
lstCitizenship                          =Lists!$B$3:$B$15
lstEdQualifications                     =Lists!$V$3:$V$9
lstEmploymentStatus                     =Lists!$Y$3:$Y$4
lstEthnicity                            =Lists!$C$3:$C$35
lstFieldsOfStudy                        =Lists!$W$3:$W$167
lstFrom                                 =Lists!$AE$3:$AE$5
lstFundingSources                       =Lists!$X$3:$X$7
lstGender                               =Lists!$A$3:$A$4
lstGrades                               =Lists!$D$3:$D$15
lstInactiveReasons                      =Lists!$Z$3:$Z$9
lstJobTitles                            =Lists!$Q$3:$Q$16
lstOrganisations                        =Lists!$T$3:$T$8
lstOutcomes                             =Lists!$AC$3:$AC$8
lstPostSecondary                        =Lists!$AD$3:$AD$9
lstQualifications                       =Lists!$U$3:$U$20
lstSoapWater                            =Lists!$AF$3:$AF$6
lstSSNPrefix                            =Lists!$AA$3:$AA$6
lstStaffType                            =Lists!$R$3:$R$4
lstStates                               =Lists!$AB$3:$AB$6
lstTeacherType                          =Lists!$S$3:$S$4
lstToilets                              =Lists!$AG$3:$AG$9
lstWater                                =Lists!$AH$3:$AH$10
lstYesNo                                =Lists!$G$3:$G$5
maxYear                                 =Settings!$B$11
mergeSchools                            =mergeSchoolList(selectedWorkbookName)
MergeSelectedSchool                     =Merge!$M$6
mergeSelectedSchoolName                 =Merge!$O$4
mergeSelectedSchoolNo                   =Merge!$K$8
nm_PowerSupplyType                      =Lists!$N$3:$N$6
nm_SchoolYear                           =Settings!$B$1
nm_State                                =Settings!$B$2
nm_State_JTL                            =Settings!$B$3
openbooks                               =openworkbooks()
Pohnpei                                 =SchoolsPOHNPEI[schName]
Pohnpei_JTL                             =Lists!$L$3:$L$35
schNames                                =SchoolsList[schName]
schoolSelection                         =getSchoolSelection()
selectedlist                            =Merge!$U$1
selectedListName                        =Merge!$U$2
selectedWorkbook                        =Merge!$O$1
selectedWorkbookName                    =Merge!$O$2
versiondate                             =Settings!$B$4
versionmsg                              =Settings!$C$4
Yap                                     =SchoolsYAP[schName]
Yap_JTL                                 =Lists!$M$3:$M$35
yearEnd                                 =Settings!$B$9
yearStart                               =Settings!$B$8

