\relax 
\providecommand\hyper@newdestlabel[2]{}
\providecommand\HyperFirstAtBeginDocument{\AtBeginDocument}
\HyperFirstAtBeginDocument{\ifx\hyper@anchor\@undefined
\global\let\oldcontentsline\contentsline
\gdef\contentsline#1#2#3#4{\oldcontentsline{#1}{#2}{#3}}
\global\let\oldnewlabel\newlabel
\gdef\newlabel#1#2{\newlabelxx{#1}#2}
\gdef\newlabelxx#1#2#3#4#5#6{\oldnewlabel{#1}{{#2}{#3}}}
\AtEndDocument{\ifx\hyper@anchor\@undefined
\let\contentsline\oldcontentsline
\let\newlabel\oldnewlabel
\fi}
\fi}
\global\let\hyper@last\relax 
\gdef\HyperFirstAtBeginDocument#1{#1}
\providecommand\HyField@AuxAddToFields[1]{}
\providecommand\HyField@AuxAddToCoFields[2]{}
\select@language{english}
\@writefile{toc}{\select@language{english}}
\@writefile{lof}{\select@language{english}}
\@writefile{lot}{\select@language{english}}
\newlabel{index::doc}{{}{1}{}{section*.2}{}}
\@writefile{toc}{\contentsline {chapter}{\numberline {1}Introduction}{3}{chapter.1}}
\@writefile{lof}{\addvspace {10\p@ }}
\@writefile{lot}{\addvspace {10\p@ }}
\@writefile{loliteral-block}{\addvspace {10\p@ }}
\newlabel{index:introduction}{{1}{3}{Introduction}{chapter.1}{}}
\newlabel{index:intro}{{1}{3}{Introduction}{chapter.1}{}}
\newlabel{index:pacific-emis-systems-administrator-guide}{{1}{3}{Introduction}{chapter.1}{}}
\@writefile{toc}{\contentsline {chapter}{\numberline {2}New Deployment}{5}{chapter.2}}
\@writefile{lof}{\addvspace {10\p@ }}
\@writefile{lot}{\addvspace {10\p@ }}
\@writefile{loliteral-block}{\addvspace {10\p@ }}
\newlabel{index:new-deployment}{{2}{5}{New Deployment}{chapter.2}{}}
\@writefile{toc}{\contentsline {section}{\numberline {2.1}Operating System}{5}{section.2.1}}
\newlabel{index:operating-system}{{2.1}{5}{Operating System}{section.2.1}{}}
\@writefile{toc}{\contentsline {section}{\numberline {2.2}Install .NET 4.6 Framework}{5}{section.2.2}}
\newlabel{index:install-net-4-6-framework}{{2.2}{5}{Install .NET 4.6 Framework}{section.2.2}{}}
\@writefile{toc}{\contentsline {section}{\numberline {2.3}Create Account to Run the Application}{5}{section.2.3}}
\newlabel{index:create-account-to-run-the-application}{{2.3}{5}{Create Account to Run the Application}{section.2.3}{}}
\newlabel{index:create-account}{{2.3}{5}{Create Account to Run the Application}{section.2.3}{}}
\@writefile{toc}{\contentsline {section}{\numberline {2.4}Active Directory Server}{6}{section.2.4}}
\newlabel{index:active-directory-server}{{2.4}{6}{Active Directory Server}{section.2.4}{}}
\@writefile{toc}{\contentsline {section}{\numberline {2.5}Database Installation}{6}{section.2.5}}
\newlabel{index:database-installation}{{2.5}{6}{Database Installation}{section.2.5}{}}
\@writefile{toc}{\contentsline {section}{\numberline {2.6}Setting up the New Empty Database}{6}{section.2.6}}
\newlabel{index:setup-new-db}{{2.6}{6}{Setting up the New Empty Database}{section.2.6}{}}
\newlabel{index:setting-up-the-new-empty-database}{{2.6}{6}{Setting up the New Empty Database}{section.2.6}{}}
\@writefile{toc}{\contentsline {section}{\numberline {2.7}Main Configuration}{7}{section.2.7}}
\newlabel{index:main-configuration}{{2.7}{7}{Main Configuration}{section.2.7}{}}
\@writefile{toc}{\contentsline {section}{\numberline {2.8}Setting Up the IdentitiesP Database}{8}{section.2.8}}
\newlabel{index:setting-up-the-identitiesp-database}{{2.8}{8}{Setting Up the IdentitiesP Database}{section.2.8}{}}
\@writefile{toc}{\contentsline {section}{\numberline {2.9}Module Configuration}{8}{section.2.9}}
\newlabel{index:module-configuration}{{2.9}{8}{Module Configuration}{section.2.9}{}}
\@writefile{toc}{\contentsline {section}{\numberline {2.10}Make User Owner of both Databases}{9}{section.2.10}}
\newlabel{index:make-user-owner-of-both-databases}{{2.10}{9}{Make User Owner of both Databases}{section.2.10}{}}
\@writefile{toc}{\contentsline {section}{\numberline {2.11}Give User Login Permission}{11}{section.2.11}}
\newlabel{index:give-user-login-permission}{{2.11}{11}{Give User Login Permission}{section.2.11}{}}
\@writefile{toc}{\contentsline {section}{\numberline {2.12}Deploy the Application}{12}{section.2.12}}
\newlabel{index:deploy-the-application}{{2.12}{12}{Deploy the Application}{section.2.12}{}}
\@writefile{toc}{\contentsline {section}{\numberline {2.13}Web Server (IIS)}{13}{section.2.13}}
\newlabel{index:web-server-iis}{{2.13}{13}{Web Server (IIS)}{section.2.13}{}}
\@writefile{toc}{\contentsline {section}{\numberline {2.14}PDF eSurvey Technology}{16}{section.2.14}}
\newlabel{index:pdf-esurvey-technology}{{2.14}{16}{PDF eSurvey Technology}{section.2.14}{}}
\@writefile{toc}{\contentsline {subsection}{\numberline {2.14.1}Getting the eSurveys on the Server}{17}{subsection.2.14.1}}
\newlabel{index:getting-the-esurveys-on-the-server}{{2.14.1}{17}{Getting the eSurveys on the Server}{subsection.2.14.1}{}}
\@writefile{toc}{\contentsline {subsection}{\numberline {2.14.2}PDF eSurvey Technology Manager}{18}{subsection.2.14.2}}
\newlabel{index:pdf-esurvey-technology-manager}{{2.14.2}{18}{PDF eSurvey Technology Manager}{subsection.2.14.2}{}}
\@writefile{toc}{\contentsline {chapter}{\numberline {3}Upgrade}{21}{chapter.3}}
\@writefile{lof}{\addvspace {10\p@ }}
\@writefile{lot}{\addvspace {10\p@ }}
\@writefile{loliteral-block}{\addvspace {10\p@ }}
\newlabel{index:upgrade}{{3}{21}{Upgrade}{chapter.3}{}}
\@writefile{toc}{\contentsline {chapter}{\numberline {4}Backup and Disaster Recovery}{23}{chapter.4}}
\@writefile{lof}{\addvspace {10\p@ }}
\@writefile{lot}{\addvspace {10\p@ }}
\@writefile{loliteral-block}{\addvspace {10\p@ }}
\newlabel{index:backup-and-disaster-recovery}{{4}{23}{Backup and Disaster Recovery}{chapter.4}{}}
\@writefile{toc}{\contentsline {chapter}{\numberline {5}Reporting Issues}{25}{chapter.5}}
\@writefile{lof}{\addvspace {10\p@ }}
\@writefile{lot}{\addvspace {10\p@ }}
\@writefile{loliteral-block}{\addvspace {10\p@ }}
\newlabel{index:reporting-issues}{{5}{25}{Reporting Issues}{chapter.5}{}}
\@writefile{toc}{\contentsline {chapter}{\numberline {6}Release History}{27}{chapter.6}}
\@writefile{lof}{\addvspace {10\p@ }}
\@writefile{lot}{\addvspace {10\p@ }}
\@writefile{loliteral-block}{\addvspace {10\p@ }}
\newlabel{index:release-history}{{6}{27}{Release History}{chapter.6}{}}
\@writefile{toc}{\contentsline {chapter}{\numberline {7}Indices and tables}{29}{chapter.7}}
\@writefile{lof}{\addvspace {10\p@ }}
\@writefile{lot}{\addvspace {10\p@ }}
\@writefile{loliteral-block}{\addvspace {10\p@ }}
\newlabel{index:indices-and-tables}{{7}{29}{Indices and tables}{chapter.7}{}}
